&GLOBAL
  PRINT_LEVEL LOW
  PROJECT eedeb8dbd925daec6092bb47e543c028ea055ab8
  RUN_TYPE ENERGY_FORCE
&END GLOBAL
&FORCE_EVAL
  METHOD Quickstep
  STRESS_TENSOR ANALYTICAL
  &PRINT
    &FORCES ON
    &END FORCES
  &END PRINT
  &SUBSYS
    &CELL
            A     9.869686127     0.000000000     0.000000000
      B     0.003995464     9.754688263     0.000000000
      C     0.000000000     0.136045858     9.958799362

    &END CELL
    &COORD
            O    6.560971260     1.059805870     6.968175888
      H    6.114399433     1.195293546     7.841488838
      H    5.811903000     0.869371176     6.353173733
      O    5.718865395     0.204654694     9.898865700
      H    4.921654224     0.383371651     9.291550636
      H    6.030186176     9.035129547     9.759201050
      O    1.705859423     5.129108906     3.668437243
      H    2.424227476     5.731194496     3.367758274
      H    0.907812059     5.399755955     3.145519733
      O    7.396427631     1.880143881     1.639881253
      H    7.149981976     1.117152929     2.212344408
      H    7.379196167     2.726497412     2.247393131
      O    2.655812979     5.673062325     0.224906921
      H    3.080665112     6.017685413     1.075001836
      H    1.676695466     5.964198112     0.235095024
      O    7.865736961     4.600711823     0.030398369
      H    8.332113266     4.960661411     9.145113945
      H    7.178817272     4.014616013     9.747220993
      O    2.081147194     2.836787701     9.193506241
      H    1.951108932     3.658120871     9.734071732
      H    1.459177136     2.214299917     9.675336838
      O    7.445795059     3.757174015     3.362571001
      H    8.229357719     3.740170002     3.961025476
      H    6.546148300     4.451809883     3.583636761
      O    4.025374413     0.493801355     5.260114193
      H    3.816125393     1.465665340     5.167692184
      H    4.933463573     0.443142891     4.883542538
      O    0.142249107     1.205280781     0.699169934
      H    9.664451599     0.337988973     0.213557795
      H    9.105316162     1.544161439     0.939862490
      O    0.728231728     5.536781311     6.371666431
      H    1.681845307     5.580646992     6.798056602
      H    0.717355669     5.754830837     5.413548470
      O    0.326466560     6.538268089     0.235344887
      H    0.238643646     6.383468151     1.217515469
      H    9.607943535     5.970960140     9.821772575
      O    8.759212494     6.153833389     7.866035461
      H    9.472712517     6.137431622     7.127569199
      H    8.296751022     7.017765522     7.914503574
      O    9.191177368     0.585158050     3.641319990
      H    8.902947426     1.122893333     2.872871637
      H    8.961983681     1.181834221     4.474714756
      O    1.104242563     2.844321012     6.462271690
      H    1.271260023     3.831834555     6.420304775
      H    0.916839600     2.749466181     7.431230545
      O    3.371298313     3.338053226     4.841916084
      H    2.855327845     3.273798704     3.976177692
      H    2.614325523     3.096386909     5.435523510
      O    9.266951561     5.991799355     2.618574381
      H    8.700776100     6.820691109     2.674699783
      H    8.632353783     5.242621899     2.722300529
      O    5.432713509     4.835862160     4.037581444
      H    5.599738598     5.240002155     4.948962212
      H    4.944890022     3.967009068     4.268683910
      O    8.741836548     1.702758551     5.763678551
      H    9.545410156     2.284004450     5.986374855
      H    7.827274323     1.958317280     6.069695473
      O    6.081446171     2.806329489     9.540868759
      H    6.325602531     1.948659062     0.267620087
      H    5.111440182     2.908637524     9.389214516
      O    4.102253914     1.155715704     8.314720154
      H    3.900984764     0.489196032     7.626634121
      H    3.288460016     1.380014539     8.827590942
      O    8.615871429     9.067102432     7.360117912
      H    9.221572876     9.609608650     6.802770615
      H    7.936388493     9.787878036     7.515678883
      O    2.915692329     5.042243481     7.337430954
      H    3.610735655     5.707915306     7.165148735
      H    2.809263945     4.981357574     8.317642212
      O    8.061505318     8.411554337     2.394381285
      H    8.214694023     8.797368050     1.481068969
      H    8.478922844     9.113328934     3.041674614
      O    6.898586750     7.387904644     9.580434799
      H    6.106731892     7.157080173     0.185508355
      H    7.375730991     6.541677952     9.834312439
      O    5.493466377     9.199218750     2.725876331
      H    6.386908531     8.726348877     2.670510054
      H    5.371558666     9.572473526     1.802096605
      O    5.809683323     5.927782536     6.582025528
      H    6.710983276     5.742279530     6.966060638
      H    5.712999821     6.858277321     6.879197598
      O    1.815255165     2.697127104     2.919395447
      H    1.788725257     3.632224798     2.609768152
      H    1.300914764     2.125582457     2.308804750
      O    3.950408459     6.511815071     2.263128996
      H    4.562042236     5.771566868     2.498509884
      H    4.479166031     7.357935905     2.274884701
      O    8.951192856     9.082964897     9.778593063
      H    8.958227158     9.029144287     8.742635727
      H    9.599423409     8.250434875     0.079935074
      UNIT ANGSTROM
    &END COORD
    &KIND H
      POTENTIAL GTH-PBE
      ELEMENT H
      BASIS_SET DZVP-GTH-PBE
    &END KIND
    &KIND O
      POTENTIAL GTH-PBE
      ELEMENT O
      BASIS_SET DZVP-GTH-PBE
    &END KIND
  &END SUBSYS
  &DFT
    POTENTIAL_FILE_NAME GTH_POTENTIALS
    MULTIPLICITY 0
    CHARGE 0
    BASIS_SET_FILE_NAME BASIS_SET
    BASIS_SET_FILE_NAME BASIS_MOLOPT
    BASIS_SET_FILE_NAME BASIS_MOLOPT_UCL
    &MGRID
      REL_CUTOFF 60
      CUTOFF 800
    &END MGRID
    &QS
      EPS_DEFAULT 1e-12
    &END QS
    &XC
      &XC_FUNCTIONAL PBE
      &END XC_FUNCTIONAL
      &XC_GRID
        XC_DERIV PW
      &END XC_GRID
    &END XC
    &SCF
      EPS_SCF 1e-05
      MAX_SCF 20
      SCF_GUESS ATOMIC
      &OUTER_SCF
        EPS_SCF 1e-05
        MAX_SCF 100
      &END OUTER_SCF
      &OT
        PRECONDITIONER FULL_SINGLE_INVERSE
        MINIMIZER DIIS
      &END OT
    &END SCF
  &END DFT
&END FORCE_EVAL